<svg width="49" height="30" viewBox="0 0 49 30" fill="none" xmlns="http://www.w3.org/2000/svg">
<path fill-rule="evenodd" clip-rule="evenodd" d="M0 0H18V29.5569H0V0Z" fill="#319400"/>
<path fill-rule="evenodd" clip-rule="evenodd" d="M18 0H49V15H18V0Z" fill="#FFD600"/>
<path fill-rule="evenodd" clip-rule="evenodd" d="M18 15H49V30H18V15Z" fill="#DE2110"/>
</svg>
