<svg width="72" height="64" viewBox="0 0 72 64" fill="none" xmlns="http://www.w3.org/2000/svg">
<g filter="url(#filter0_d)">
<path d="M26 54H58C64.627 54 68 49.075 68 43V33H26V54Z" fill="#00785E"/>
<path d="M58 10H26V33H68V21C68 14.925 64.627 10 58 10Z" fill="#F9CB38"/>
<path d="M26 10H14C7.373 10 4 14.925 4 21V43C4 49.075 7.373 54 14 54H26V10Z" fill="#EC1C24"/>
<path d="M23.06 29.3571L16.757 29.3731L14.807 22.9941L12.862 29.3731L6.55396 29.3571L11.663 33.2401L9.68695 39.5741L14.811 35.6381L19.943 39.5741L17.961 33.2401L23.06 29.3571Z" fill="#25333A"/>
</g>
<defs>
<filter id="filter0_d" x="0" y="0" width="72" height="72" filterUnits="userSpaceOnUse" color-interpolation-filters="sRGB">
<feFlood flood-opacity="0" result="BackgroundImageFix"/>
<feColorMatrix in="SourceAlpha" type="matrix" values="0 0 0 0 0 0 0 0 0 0 0 0 0 0 0 0 0 0 127 0"/>
<feOffset dy="4"/>
<feGaussianBlur stdDeviation="2"/>
<feColorMatrix type="matrix" values="0 0 0 0 0 0 0 0 0 0 0 0 0 0 0 0 0 0 0.25 0"/>
<feBlend mode="normal" in2="BackgroundImageFix" result="effect1_dropShadow"/>
<feBlend mode="normal" in="SourceGraphic" in2="effect1_dropShadow" result="shape"/>
</filter>
</defs>
</svg>
